<?xml version="1.0" encoding="UTF-8" standalone="no"?>
<svg
   xmlns:dc="http://purl.org/dc/elements/1.1/"
   xmlns:cc="http://creativecommons.org/ns#"
   xmlns:rdf="http://www.w3.org/1999/02/22-rdf-syntax-ns#"
   xmlns:svg="http://www.w3.org/2000/svg"
   xmlns="http://www.w3.org/2000/svg"
   xmlns:sodipodi="http://sodipodi.sourceforge.net/DTD/sodipodi-0.dtd"
   xmlns:inkscape="http://www.inkscape.org/namespaces/inkscape"
   width="800.0px"
   height="800.0px"
   viewBox="0 0 800.0 800.0 "
   id="svg2"
   version="1.1"
   inkscape:version="0.91 r13725"
  >
  <defs
     id="defs4"> 
<filter
       style="color-interpolation-filters:sRGB;"
       inkscape:label="Drop Shadow"
       id="filter3443"
        x="-25%"
        y="-25%"
        width="150%"        
        height="150%"        
        >
      <feFlood
         flood-opacity="0.498039"
         flood-color="rgb(0,0,0)"
         result="flood"
         id="feFlood3445" />
      <feComposite
         in="flood"
         in2="SourceGraphic"
         operator="in"
         result="composite1"
         id="feComposite3447" />
      <feGaussianBlur
         in="composite1"
         stdDeviation="3"
         result="blur"
         id="feGaussianBlur3449" />
      <feOffset
         dx="2"
         dy="3"
         result="offset"
         id="feOffset3451" />
      <feComposite
         in="SourceGraphic"
         in2="offset"
         operator="over"
         result="composite2"
         id="feComposite3453" />
    </filter>
    <marker
       inkscape:stockid="Arrow1Lend"
       orient="auto"
       refY="0.0"
       refX="0.0"
       id="Arrow1Lend"
       style="overflow:visible;"
       inkscape:isstock="true">
      <path
         d="M -3.0,0.0 L -3.0,-5.0 L -12.5,0.0 L -3.0,5.0 L -3.0,0.0 z "
         style="fill-rule:evenodd;stroke:#003080;stroke-width:1pt;stroke-opacity:1;fill:#003080;fill-opacity:1"
         transform="scale(0.8) rotate(180) translate(12.5,0)" />
    </marker>    

  </defs>
    <g transform="translate(0 10)">
<g style="filter:url(#filter3443)">
  <rect
     x="2"
     y="0"
     width="796.0"
     height="80"
     style="opacity:1;fill:#ffffff;fill-opacity:1;stroke:#000000;stroke-width:1px;" />
      <text
         x="400.0"
         y="40.0"
         style="font-size:22px;font-family:sans-serif;text-align:center;text-anchor:middle;fill:#000000;"
         xml:space="preserve">action$.pipe(...)</text>
    </g>
<g id="operator_action$.pipe(...)" transform="rotate(0 0.0 120) translate(0.0,120)">
  <path 
     style="fill:none;fill-rule:evenodd;stroke:#003080;stroke-width:2px;marker-end:url(#Arrow1Lend)"
     d="m 0,0 797.0,0"
     inkscape:connector-curvature="0" />

<g style="filter:url(#filter3443)">
  <circle
     r="22"
     cy="0"
     cx="75.0"
     style="opacity:1;fill:#ffcc00;fill-opacity:1;stroke:#003080;stroke-width:1px;" />
  <text
     y="7"
     x="75.0"
     style="font-size:20px;font-family:sans-serif;text-align:center;text-anchor:middle;fill:#000000;"
     xml:space="preserve">A1</text>
</g>

<g style="filter:url(#filter3443)">
  <circle
     r="22"
     cy="0"
     cx="175.0"
     style="opacity:1;fill:#48b3cd;fill-opacity:1;stroke:#003080;stroke-width:1px;" />
  <text
     y="7"
     x="175.0"
     style="font-size:20px;font-family:sans-serif;text-align:center;text-anchor:middle;fill:#000000;"
     xml:space="preserve">A2</text>
</g>

<g style="filter:url(#filter3443)">
  <circle
     r="22"
     cy="0"
     cx="275.0"
     style="opacity:1;fill:#ffaacc;fill-opacity:1;stroke:#003080;stroke-width:1px;" />
  <text
     y="7"
     x="275.0"
     style="font-size:20px;font-family:sans-serif;text-align:center;text-anchor:middle;fill:#000000;"
     xml:space="preserve">Ac</text>
</g>

<g style="filter:url(#filter3443)">
  <circle
     r="22"
     cy="0"
     cx="375.0"
     style="opacity:1;fill:#e5ff7c;fill-opacity:1;stroke:#003080;stroke-width:1px;" />
  <text
     y="7"
     x="375.0"
     style="font-size:20px;font-family:sans-serif;text-align:center;text-anchor:middle;fill:#000000;"
     xml:space="preserve">A4</text>
</g>

<g style="filter:url(#filter3443)">
  <circle
     r="22"
     cy="0"
     cx="475.0"
     style="opacity:1;fill:#ececec;fill-opacity:1;stroke:#003080;stroke-width:1px;" />
  <text
     y="7"
     x="475.0"
     style="font-size:20px;font-family:sans-serif;text-align:center;text-anchor:middle;fill:#000000;"
     xml:space="preserve">A5</text>
</g>

<g style="filter:url(#filter3443)">
  <circle
     r="22"
     cy="0"
     cx="575.0"
     style="opacity:1;fill:#a4ecff;fill-opacity:1;stroke:#003080;stroke-width:1px;" />
  <text
     y="7"
     x="575.0"
     style="font-size:20px;font-family:sans-serif;text-align:center;text-anchor:middle;fill:#000000;"
     xml:space="preserve">An</text>
</g>
</g></g><g transform="translate(0 190.0)">
<g style="filter:url(#filter3443)">
  <rect
     x="2"
     y="0"
     width="796.0"
     height="80"
     style="opacity:1;fill:#ffffff;fill-opacity:1;stroke:#000000;stroke-width:1px;" />
      <text
         x="400.0"
         y="40.0"
         style="font-size:22px;font-family:sans-serif;text-align:center;text-anchor:middle;fill:#000000;"
         xml:space="preserve">ofType(ChatActions.CONNECTION_REQUEST)</text>
    </g>
<g id="operator_ofType(ChatActions.CONNECTION_REQUEST)" transform="rotate(0 0.0 120) translate(0.0,120)">
  <path 
     style="fill:none;fill-rule:evenodd;stroke:#003080;stroke-width:2px;marker-end:url(#Arrow1Lend)"
     d="m 0,0 797.0,0"
     inkscape:connector-curvature="0" />

<g style="filter:url(#filter3443)">
  <circle
     r="22"
     cy="0"
     cx="275.0"
     style="opacity:1;fill:#ffaacc;fill-opacity:1;stroke:#003080;stroke-width:1px;" />
  <text
     y="7"
     x="275.0"
     style="font-size:20px;font-family:sans-serif;text-align:center;text-anchor:middle;fill:#000000;"
     xml:space="preserve">Ac</text>
</g>
</g></g><g id="source_socket" transform="rotate(0 250.0 390.0) translate(250.0,390.0)">
  <path 
     style="fill:none;fill-rule:evenodd;stroke:#003080;stroke-width:2px;marker-end:url(#Arrow1Lend)"
     d="m 0,0 547.0,0"
     inkscape:connector-curvature="0" />

<g style="filter:url(#filter3443)">
  <circle
     r="22"
     cy="0"
     cx="125.0"
     style="opacity:1;fill:#ff6600;fill-opacity:1;stroke:#003080;stroke-width:1px;" />
  <text
     y="7"
     x="125.0"
     style="font-size:20px;font-family:sans-serif;text-align:center;text-anchor:middle;fill:#000000;"
     xml:space="preserve">json</text>
</g>

<g style="filter:url(#filter3443)">
  <circle
     r="22"
     cy="0"
     cx="275.0"
     style="opacity:1;fill:#ff6600;fill-opacity:1;stroke:#003080;stroke-width:1px;" />
  <text
     y="7"
     x="275.0"
     style="font-size:20px;font-family:sans-serif;text-align:center;text-anchor:middle;fill:#000000;"
     xml:space="preserve">json</text>
</g>

<g style="filter:url(#filter3443)">
  <circle
     r="22"
     cy="0"
     cx="375.0"
     style="opacity:1;fill:#ff6600;fill-opacity:1;stroke:#003080;stroke-width:1px;" />
  <text
     y="7"
     x="375.0"
     style="font-size:20px;font-family:sans-serif;text-align:center;text-anchor:middle;fill:#000000;"
     xml:space="preserve">json</text>
</g>
</g><g transform="translate(0 450.0)">
<g style="filter:url(#filter3443)">
  <rect
     x="2"
     y="0"
     width="796.0"
     height="80"
     style="opacity:1;fill:#ffffff;fill-opacity:1;stroke:#000000;stroke-width:1px;" />
      <text
         x="400.0"
         y="40.0"
         style="font-size:22px;font-family:sans-serif;text-align:center;text-anchor:middle;fill:#000000;"
         xml:space="preserve">mergeMap(socket$)</text>
    </g>
<g id="operator_mergeMap(socket$)" transform="rotate(0 250.0 120) translate(250.0,120)">
  <path 
     style="fill:none;fill-rule:evenodd;stroke:#003080;stroke-width:2px;marker-end:url(#Arrow1Lend)"
     d="m 0,0 547.0,0"
     inkscape:connector-curvature="0" />

<g style="filter:url(#filter3443)">
  <circle
     r="22"
     cy="0"
     cx="25"
     style="opacity:1;fill:#ffaacc;fill-opacity:1;stroke:#003080;stroke-width:1px;" />
  <text
     y="7"
     x="25"
     style="font-size:20px;font-family:sans-serif;text-align:center;text-anchor:middle;fill:#000000;"
     xml:space="preserve">Ac</text>
</g>

<g style="filter:url(#filter3443)">
  <circle
     r="22"
     cy="0"
     cx="125.0"
     style="opacity:1;fill:#ff6600;fill-opacity:1;stroke:#003080;stroke-width:1px;" />
  <text
     y="7"
     x="125.0"
     style="font-size:20px;font-family:sans-serif;text-align:center;text-anchor:middle;fill:#000000;"
     xml:space="preserve">json</text>
</g>

<g style="filter:url(#filter3443)">
  <circle
     r="22"
     cy="0"
     cx="275.0"
     style="opacity:1;fill:#ff6600;fill-opacity:1;stroke:#003080;stroke-width:1px;" />
  <text
     y="7"
     x="275.0"
     style="font-size:20px;font-family:sans-serif;text-align:center;text-anchor:middle;fill:#000000;"
     xml:space="preserve">json</text>
</g>

<g style="filter:url(#filter3443)">
  <circle
     r="22"
     cy="0"
     cx="375.0"
     style="opacity:1;fill:#ff6600;fill-opacity:1;stroke:#003080;stroke-width:1px;" />
  <text
     y="7"
     x="375.0"
     style="font-size:20px;font-family:sans-serif;text-align:center;text-anchor:middle;fill:#000000;"
     xml:space="preserve">json</text>
</g>
</g></g><g transform="translate(0 630.0)">
<g style="filter:url(#filter3443)">
  <rect
     x="2"
     y="0"
     width="796.0"
     height="80"
     style="opacity:1;fill:#ffffff;fill-opacity:1;stroke:#000000;stroke-width:1px;" />
      <text
         x="400.0"
         y="40.0"
         style="font-size:22px;font-family:sans-serif;text-align:center;text-anchor:middle;fill:#000000;"
         xml:space="preserve">.pipe(map(...))</text>
    </g>
<g id="operator_.pipe(map(...))" transform="rotate(0 250.0 120) translate(250.0,120)">
  <path 
     style="fill:none;fill-rule:evenodd;stroke:#003080;stroke-width:2px;marker-end:url(#Arrow1Lend)"
     d="m 0,0 547.0,0"
     inkscape:connector-curvature="0" />

<g style="filter:url(#filter3443)">
  <circle
     r="22"
     cy="0"
     cx="125.0"
     style="opacity:1;fill:#a0c800;fill-opacity:1;stroke:#003080;stroke-width:1px;" />
  <text
     y="7"
     x="125.0"
     style="font-size:20px;font-family:sans-serif;text-align:center;text-anchor:middle;fill:#000000;"
     xml:space="preserve">Am</text>
</g>

<g style="filter:url(#filter3443)">
  <circle
     r="22"
     cy="0"
     cx="275.0"
     style="opacity:1;fill:#a0c800;fill-opacity:1;stroke:#003080;stroke-width:1px;" />
  <text
     y="7"
     x="275.0"
     style="font-size:20px;font-family:sans-serif;text-align:center;text-anchor:middle;fill:#000000;"
     xml:space="preserve">Am</text>
</g>

<g style="filter:url(#filter3443)">
  <circle
     r="22"
     cy="0"
     cx="375.0"
     style="opacity:1;fill:#a0c800;fill-opacity:1;stroke:#003080;stroke-width:1px;" />
  <text
     y="7"
     x="375.0"
     style="font-size:20px;font-family:sans-serif;text-align:center;text-anchor:middle;fill:#000000;"
     xml:space="preserve">Am</text>
</g>
</g></g>
 </svg>
